Files found in blib/arch: installing files in blib/lib into architecture dependent library tree
Installing /data/sharedfs/deccptest/CP_INSTALL/cp210_prereq/lib/perl5/x86_64-linux-thread-multi/auto/Clone/Clone.so
Installing /data/sharedfs/deccptest/CP_INSTALL/cp210_prereq/lib/perl5/x86_64-linux-thread-multi/auto/Clone/Clone.bs
Installing /data/sharedfs/deccptest/CP_INSTALL/cp210_prereq/lib/perl5/x86_64-linux-thread-multi/Clone.pm
Installing /data/sharedfs/deccptest/CP_INSTALL/cp210_prereq/lib/perl5/x86_64-linux-thread-multi/auto/Clone/autosplit.ix
Installing /data/sharedfs/deccptest/CP_INSTALL/cp210_prereq/man/man3/Clone.3pm
Appending installation info to /data/sharedfs/deccptest/CP_INSTALL/cp210_prereq/lib/perl5/x86_64-linux-thread-multi/perllocal.pod
